^D:\REPOS\MPI\MPITASK5\MPITASK5\X64\DEBUG\MPITASK5.OBJ|D:\REPOS\MPI\MPITASK5\MPITASK5\X64\DEBUG\PCH.OBJ
D:\REPOS\MPI\MPITASK5\X64\DEBUG\MPITASK5.EXE
D:\REPOS\MPI\MPITASK5\X64\DEBUG\MPITASK5.ILK
D:\REPOS\MPI\MPITASK5\X64\DEBUG\MPITASK5.PDB
