^D:\REPOS\MPI\MPITASK2\MPITASK2\X64\DEBUG\MPITASK2.OBJ|D:\REPOS\MPI\MPITASK2\MPITASK2\X64\DEBUG\PCH.OBJ
D:\REPOS\MPI\MPITASK2\X64\DEBUG\MPITASK2.ILK
D:\REPOS\MPI\MPITASK2\X64\DEBUG\MPITASK2.EXE
D:\REPOS\MPI\MPITASK2\X64\DEBUG\MPITASK2.PDB
