d:\repos\mpi\mpitask9\mpitask9\x64\debug\mpitask9.pch
d:\repos\mpi\mpitask9\mpitask9\x64\debug\vc141.pdb
d:\repos\mpi\mpitask9\mpitask9\x64\debug\vc141.idb
d:\repos\mpi\mpitask9\mpitask9\x64\debug\pch.obj
d:\repos\mpi\mpitask9\mpitask9\x64\debug\mpitask9.obj
d:\repos\mpi\mpitask9\x64\debug\mpitask9.exe
d:\repos\mpi\mpitask9\x64\debug\mpitask9.ilk
d:\repos\mpi\mpitask9\x64\debug\mpitask9.pdb
d:\repos\mpi\mpitask9\mpitask9\x64\debug\mpitask9.tlog\cl.command.1.tlog
d:\repos\mpi\mpitask9\mpitask9\x64\debug\mpitask9.tlog\cl.read.1.tlog
d:\repos\mpi\mpitask9\mpitask9\x64\debug\mpitask9.tlog\cl.write.1.tlog
d:\repos\mpi\mpitask9\mpitask9\x64\debug\mpitask9.tlog\link.command.1.tlog
d:\repos\mpi\mpitask9\mpitask9\x64\debug\mpitask9.tlog\link.read.1.tlog
d:\repos\mpi\mpitask9\mpitask9\x64\debug\mpitask9.tlog\link.write.1.tlog
